{
    "prepare_queue": {
        "installed": [],
        "uninstalled": []
    },
    "config_munge": {
        "files": {
            "res/xml/config.xml": {
                "parents": {
                    "/*": [
                        {
                            "xml": "<feature name=\"Device\"><param name=\"android-package\" value=\"org.apache.cordova.device.Device\" /></feature>",
                            "count": 1
                        },
                        {
                            "xml": "<feature name=\"Notification\"><param name=\"android-package\" value=\"org.apache.cordova.dialogs.Notification\" /></feature>",
                            "count": 1
                        },
                        {
                            "xml": "<feature name=\"SocialSharing\"><param name=\"android-package\" value=\"nl.xservices.plugins.SocialSharing\" /></feature>",
                            "count": 1
                        }
                    ]
                }
            },
            "AndroidManifest.xml": {
                "parents": {
                    "/manifest": [
                        {
                            "xml": "<uses-permission android:name=\"android.permission.WRITE_EXTERNAL_STORAGE\" />",
                            "count": 1
                        }
                    ]
                }
            }
        }
    },
    "installed_plugins": {
        "org.apache.cordova.console": {
            "PACKAGE_NAME": "dk.instinkt.trendquiz"
        },
        "org.apache.cordova.device": {
            "PACKAGE_NAME": "dk.instinkt.trendquiz"
        },
        "org.apache.cordova.dialogs": {
            "PACKAGE_NAME": "dk.instinkt.trendquiz"
        },
        "nl.x-services.plugins.socialsharing": {
            "PACKAGE_NAME": "dk.instinkt.trendquiz"
        }
    },
    "dependent_plugins": {}
}